{
  "relayName": "Agillic Value Relay",
  "categoryName": "Area of Work",
  "nodes": [
    {
      "id": 4778,
      "name": "Sales & Marketing",
      "value": 19
    },
    {
      "id": 4779,
      "name": "Management & Finance",
      "value": 13
    },
    {
      "id": 4780,
      "name": "Engineering & DevOps",
      "value": 12
    },
    {
      "id": 4782,
      "name": "Customer support & engagement",
      "value": 29
    }
  ],
  "edges": [
    {
      "source": 4778,
      "target": 4778,
      "value": 5
    },
    {
      "source": 4778,
      "target": 4779,
      "value": 4
    },
    {
      "source": 4778,
      "target": 4780,
      "value": 3
    },
    {
      "source": 4778,
      "target": 4782,
      "value": 5
    },
    {
      "source": 4779,
      "target": 4778,
      "value": 4
    },
    {
      "source": 4779,
      "target": 4780,
      "value": 1
    },
    {
      "source": 4779,
      "target": 4782,
      "value": 3
    },
    {
      "source": 4780,
      "target": 4778,
      "value": 1
    },
    {
      "source": 4780,
      "target": 4779,
      "value": 1
    },
    {
      "source": 4780,
      "target": 4782,
      "value": 1
    },
    {
      "source": 4782,
      "target": 4778,
      "value": 1
    },
    {
      "source": 4782,
      "target": 4779,
      "value": 3
    },
    {
      "source": 4782,
      "target": 4780,
      "value": 3
    },
    {
      "source": 4782,
      "target": 4782,
      "value": 12
    }
  ]
}