{
  "relayName": "Alle i Tale Stafetten",
  "categoryName": "Job",
  "nodes": [
    {
      "id": 2550,
      "name": "Direktør",
      "value": 51
    },
    {
      "id": 2551,
      "name": "Ekstern konsulent",
      "value": 123
    },
    {
      "id": 2552,
      "name": "Faglig medarbejder",
      "value": 42
    },
    {
      "id": 2553,
      "name": "Forsker",
      "value": 21
    },
    {
      "id": 2554,
      "name": "Ikke angivet",
      "value": 38
    },
    {
      "id": 2555,
      "name": "Intern konsulent",
      "value": 42
    },
    {
      "id": 2556,
      "name": "Leder",
      "value": 75
    }
  ],
  "edges": [
    {
      "source": 2550,
      "target": 2550,
      "value": 4
    },
    {
      "source": 2550,
      "target": 2551,
      "value": 9
    },
    {
      "source": 2550,
      "target": 2552,
      "value": 3
    },
    {
      "source": 2550,
      "target": 2553,
      "value": 3
    },
    {
      "source": 2550,
      "target": 2554,
      "value": 2
    },
    {
      "source": 2550,
      "target": 2555,
      "value": 6
    },
    {
      "source": 2550,
      "target": 2556,
      "value": 9
    },
    {
      "source": 2551,
      "target": 2550,
      "value": 19
    },
    {
      "source": 2551,
      "target": 2551,
      "value": 22
    },
    {
      "source": 2551,
      "target": 2552,
      "value": 7
    },
    {
      "source": 2551,
      "target": 2553,
      "value": 8
    },
    {
      "source": 2551,
      "target": 2554,
      "value": 5
    },
    {
      "source": 2551,
      "target": 2555,
      "value": 8
    },
    {
      "source": 2551,
      "target": 2556,
      "value": 11
    },
    {
      "source": 2552,
      "target": 2550,
      "value": 1
    },
    {
      "source": 2552,
      "target": 2551,
      "value": 5
    },
    {
      "source": 2552,
      "target": 2552,
      "value": 4
    },
    {
      "source": 2552,
      "target": 2553,
      "value": 2
    },
    {
      "source": 2552,
      "target": 2554,
      "value": 2
    },
    {
      "source": 2552,
      "target": 2555,
      "value": 6
    },
    {
      "source": 2552,
      "target": 2556,
      "value": 2
    },
    {
      "source": 2553,
      "target": 2550,
      "value": 2
    },
    {
      "source": 2553,
      "target": 2551,
      "value": 3
    },
    {
      "source": 2553,
      "target": 2552,
      "value": 2
    },
    {
      "source": 2553,
      "target": 2553,
      "value": 3
    },
    {
      "source": 2553,
      "target": 2554,
      "value": 1
    },
    {
      "source": 2553,
      "target": 2556,
      "value": 3
    },
    {
      "source": 2554,
      "target": 2550,
      "value": 2
    },
    {
      "source": 2554,
      "target": 2551,
      "value": 7
    },
    {
      "source": 2554,
      "target": 2552,
      "value": 2
    },
    {
      "source": 2554,
      "target": 2553,
      "value": 1
    },
    {
      "source": 2554,
      "target": 2554,
      "value": 2
    },
    {
      "source": 2554,
      "target": 2555,
      "value": 1
    },
    {
      "source": 2554,
      "target": 2556,
      "value": 2
    },
    {
      "source": 2555,
      "target": 2550,
      "value": 1
    },
    {
      "source": 2555,
      "target": 2551,
      "value": 10
    },
    {
      "source": 2555,
      "target": 2552,
      "value": 2
    },
    {
      "source": 2555,
      "target": 2553,
      "value": 1
    },
    {
      "source": 2555,
      "target": 2554,
      "value": 1
    },
    {
      "source": 2555,
      "target": 2555,
      "value": 2
    },
    {
      "source": 2555,
      "target": 2556,
      "value": 7
    },
    {
      "source": 2556,
      "target": 2550,
      "value": 5
    },
    {
      "source": 2556,
      "target": 2551,
      "value": 19
    },
    {
      "source": 2556,
      "target": 2552,
      "value": 3
    },
    {
      "source": 2556,
      "target": 2553,
      "value": 4
    },
    {
      "source": 2556,
      "target": 2554,
      "value": 2
    },
    {
      "source": 2556,
      "target": 2555,
      "value": 3
    },
    {
      "source": 2556,
      "target": 2556,
      "value": 5
    }
  ]
}