{
  "relayName": "CHI - Copenhagen Health Innovation",
  "categoryName": "Arbejdssted",
  "nodes": [
    {
      "id": 3911,
      "name": "Herlev-Gentofte Hospital",
      "value": 21
    },
    {
      "id": 3912,
      "name": "Region Hovedstaden - Koncerncenter",
      "value": 15
    },
    {
      "id": 3913,
      "name": "Københavns Universitet - SUND",
      "value": 14
    },
    {
      "id": 3914,
      "name": "CBS",
      "value": 2
    },
    {
      "id": 3915,
      "name": "DTU",
      "value": 7
    },
    {
      "id": 3916,
      "name": "Metropol",
      "value": 21
    },
    {
      "id": 3950,
      "name": "Københavns Kommune -  Sundheds- og Omsorgsforvaltningen ",
      "value": 10
    },
    {
      "id": 3955,
      "name": "CHI - Copenhagen Health Innovation",
      "value": 3
    }
  ],
  "edges": [
    {
      "source": 3911,
      "target": 3911,
      "value": 1
    },
    {
      "source": 3911,
      "target": 3913,
      "value": 2
    },
    {
      "source": 3911,
      "target": 3915,
      "value": 4
    },
    {
      "source": 3911,
      "target": 3916,
      "value": 10
    },
    {
      "source": 3912,
      "target": 3911,
      "value": 2
    },
    {
      "source": 3912,
      "target": 3912,
      "value": 2
    },
    {
      "source": 3912,
      "target": 3913,
      "value": 1
    },
    {
      "source": 3912,
      "target": 3914,
      "value": 1
    },
    {
      "source": 3912,
      "target": 3915,
      "value": 1
    },
    {
      "source": 3912,
      "target": 3916,
      "value": 5
    },
    {
      "source": 3912,
      "target": 3950,
      "value": 1
    },
    {
      "source": 3912,
      "target": 3955,
      "value": 1
    },
    {
      "source": 3913,
      "target": 3911,
      "value": 4
    },
    {
      "source": 3913,
      "target": 3912,
      "value": 2
    },
    {
      "source": 3913,
      "target": 3913,
      "value": 1
    },
    {
      "source": 3913,
      "target": 3914,
      "value": 1
    },
    {
      "source": 3913,
      "target": 3916,
      "value": 1
    },
    {
      "source": 3913,
      "target": 3950,
      "value": 2
    },
    {
      "source": 3913,
      "target": 3955,
      "value": 1
    },
    {
      "source": 3915,
      "target": 3911,
      "value": 1
    },
    {
      "source": 3915,
      "target": 3912,
      "value": 1
    },
    {
      "source": 3915,
      "target": 3913,
      "value": 1
    },
    {
      "source": 3915,
      "target": 3916,
      "value": 1
    },
    {
      "source": 3915,
      "target": 3950,
      "value": 1
    },
    {
      "source": 3916,
      "target": 3911,
      "value": 6
    },
    {
      "source": 3916,
      "target": 3913,
      "value": 2
    },
    {
      "source": 3916,
      "target": 3916,
      "value": 2
    },
    {
      "source": 3916,
      "target": 3950,
      "value": 2
    },
    {
      "source": 3950,
      "target": 3912,
      "value": 1
    },
    {
      "source": 3950,
      "target": 3913,
      "value": 3
    },
    {
      "source": 3950,
      "target": 3916,
      "value": 1
    },
    {
      "source": 3955,
      "target": 3911,
      "value": 1
    },
    {
      "source": 3955,
      "target": 3912,
      "value": 1
    }
  ]
}