{
  "relayName": "CHI - Copenhagen Health Innovation",
  "categoryName": "Funktion",
  "nodes": [
    {
      "id": 3924,
      "name": "Konsulent (understøttende funktioner - ledere, projektledere, udviklere, koordinatorer o.lign.)  ",
      "value": 37
    },
    {
      "id": 3925,
      "name": "Sundhedsprofessionel - understøttende funktion (administration, ledelse etc.)",
      "value": 18
    },
    {
      "id": 3926,
      "name": "Sundhedsprofessionel fra uddannelsesinstitution  ",
      "value": 6
    },
    {
      "id": 3927,
      "name": "Sundhedsprofessionel fra praksis (læge, sygeplejerske, bioanalytiker etc.)",
      "value": 9
    },
    {
      "id": 3928,
      "name": "Forsker/underviser fra uddannelsesinstitution  ",
      "value": 23
    }
  ],
  "edges": [
    {
      "source": 3924,
      "target": 3924,
      "value": 11
    },
    {
      "source": 3924,
      "target": 3925,
      "value": 7
    },
    {
      "source": 3924,
      "target": 3928,
      "value": 8
    },
    {
      "source": 3925,
      "target": 3924,
      "value": 6
    },
    {
      "source": 3925,
      "target": 3926,
      "value": 3
    },
    {
      "source": 3925,
      "target": 3928,
      "value": 5
    },
    {
      "source": 3926,
      "target": 3925,
      "value": 2
    },
    {
      "source": 3926,
      "target": 3927,
      "value": 2
    },
    {
      "source": 3927,
      "target": 3924,
      "value": 1
    },
    {
      "source": 3927,
      "target": 3925,
      "value": 1
    },
    {
      "source": 3927,
      "target": 3928,
      "value": 6
    },
    {
      "source": 3928,
      "target": 3924,
      "value": 8
    },
    {
      "source": 3928,
      "target": 3925,
      "value": 2
    },
    {
      "source": 3928,
      "target": 3926,
      "value": 1
    },
    {
      "source": 3928,
      "target": 3927,
      "value": 4
    }
  ]
}