{
  "relayName": "Miljø- og Fødevareministeriet",
  "categoryName": "Type/Kategori",
  "nodes": [
    {
      "id": 521,
      "name": "Andet",
      "value": 4
    },
    {
      "id": 522,
      "name": "Universitet/uddannelsessted",
      "value": 18
    },
    {
      "id": 523,
      "name": "Studerende/privat",
      "value": 31
    },
    {
      "id": 524,
      "name": "Restaurant og storkøkken",
      "value": 25
    },
    {
      "id": 525,
      "name": "Rådgiver",
      "value": 21
    },
    {
      "id": 526,
      "name": "Privat madspildsvirksomhed",
      "value": 8
    },
    {
      "id": 527,
      "name": "NGO/Græsrod",
      "value": 14
    },
    {
      "id": 528,
      "name": "Myndighed",
      "value": 28
    },
    {
      "id": 529,
      "name": "Fødevareindustri",
      "value": 6
    },
    {
      "id": 530,
      "name": "Detailhandel",
      "value": 7
    },
    {
      "id": 531,
      "name": "Branche-/interesseorganisation",
      "value": 12
    }
  ],
  "edges": [
    {
      "source": 522,
      "target": 527,
      "value": 1
    },
    {
      "source": 522,
      "target": 528,
      "value": 1
    },
    {
      "source": 522,
      "target": 530,
      "value": 1
    },
    {
      "source": 522,
      "target": 531,
      "value": 2
    },
    {
      "source": 523,
      "target": 522,
      "value": 2
    },
    {
      "source": 523,
      "target": 524,
      "value": 1
    },
    {
      "source": 523,
      "target": 526,
      "value": 2
    },
    {
      "source": 523,
      "target": 527,
      "value": 2
    },
    {
      "source": 523,
      "target": 528,
      "value": 2
    },
    {
      "source": 523,
      "target": 531,
      "value": 1
    },
    {
      "source": 524,
      "target": 522,
      "value": 3
    },
    {
      "source": 524,
      "target": 524,
      "value": 1
    },
    {
      "source": 524,
      "target": 530,
      "value": 1
    },
    {
      "source": 525,
      "target": 522,
      "value": 1
    },
    {
      "source": 525,
      "target": 524,
      "value": 4
    },
    {
      "source": 525,
      "target": 527,
      "value": 1
    },
    {
      "source": 525,
      "target": 528,
      "value": 1
    },
    {
      "source": 525,
      "target": 530,
      "value": 1
    },
    {
      "source": 526,
      "target": 528,
      "value": 3
    },
    {
      "source": 526,
      "target": 530,
      "value": 2
    },
    {
      "source": 527,
      "target": 525,
      "value": 1
    },
    {
      "source": 527,
      "target": 530,
      "value": 1
    },
    {
      "source": 527,
      "target": 531,
      "value": 2
    },
    {
      "source": 528,
      "target": 521,
      "value": 1
    },
    {
      "source": 528,
      "target": 522,
      "value": 1
    },
    {
      "source": 528,
      "target": 524,
      "value": 2
    },
    {
      "source": 528,
      "target": 528,
      "value": 2
    },
    {
      "source": 528,
      "target": 529,
      "value": 3
    },
    {
      "source": 528,
      "target": 531,
      "value": 4
    },
    {
      "source": 529,
      "target": 528,
      "value": 1
    },
    {
      "source": 530,
      "target": 529,
      "value": 1
    },
    {
      "source": 531,
      "target": 522,
      "value": 1
    },
    {
      "source": 531,
      "target": 527,
      "value": 1
    },
    {
      "source": 531,
      "target": 530,
      "value": 1
    }
  ]
}