{
  "relayName": "Københavns Kommune",
  "categoryName": "Alder",
  "nodes": [
    {
      "id": 1687,
      "name": "18-29 år",
      "value": 9
    },
    {
      "id": 1688,
      "name": "30-39 år",
      "value": 37
    },
    {
      "id": 1689,
      "name": "40-49 år",
      "value": 58
    },
    {
      "id": 1690,
      "name": "50-59 år",
      "value": 43
    },
    {
      "id": 1691,
      "name": "60-69 år",
      "value": 34
    },
    {
      "id": 1692,
      "name": "70+ år",
      "value": 23
    }
  ],
  "edges": [
    {
      "source": 1687,
      "target": 1687,
      "value": 1
    },
    {
      "source": 1687,
      "target": 1688,
      "value": 3
    },
    {
      "source": 1688,
      "target": 1687,
      "value": 3
    },
    {
      "source": 1688,
      "target": 1688,
      "value": 5
    },
    {
      "source": 1688,
      "target": 1689,
      "value": 5
    },
    {
      "source": 1688,
      "target": 1690,
      "value": 2
    },
    {
      "source": 1688,
      "target": 1691,
      "value": 2
    },
    {
      "source": 1688,
      "target": 1692,
      "value": 2
    },
    {
      "source": 1689,
      "target": 1687,
      "value": 2
    },
    {
      "source": 1689,
      "target": 1688,
      "value": 7
    },
    {
      "source": 1689,
      "target": 1689,
      "value": 7
    },
    {
      "source": 1689,
      "target": 1690,
      "value": 7
    },
    {
      "source": 1689,
      "target": 1691,
      "value": 2
    },
    {
      "source": 1689,
      "target": 1692,
      "value": 2
    },
    {
      "source": 1690,
      "target": 1687,
      "value": 2
    },
    {
      "source": 1690,
      "target": 1688,
      "value": 2
    },
    {
      "source": 1690,
      "target": 1689,
      "value": 6
    },
    {
      "source": 1690,
      "target": 1690,
      "value": 4
    },
    {
      "source": 1690,
      "target": 1691,
      "value": 2
    },
    {
      "source": 1690,
      "target": 1692,
      "value": 1
    },
    {
      "source": 1691,
      "target": 1687,
      "value": 1
    },
    {
      "source": 1691,
      "target": 1688,
      "value": 5
    },
    {
      "source": 1691,
      "target": 1689,
      "value": 6
    },
    {
      "source": 1691,
      "target": 1690,
      "value": 1
    },
    {
      "source": 1691,
      "target": 1691,
      "value": 2
    },
    {
      "source": 1691,
      "target": 1692,
      "value": 3
    },
    {
      "source": 1692,
      "target": 1688,
      "value": 1
    },
    {
      "source": 1692,
      "target": 1689,
      "value": 6
    },
    {
      "source": 1692,
      "target": 1690,
      "value": 2
    },
    {
      "source": 1692,
      "target": 1691,
      "value": 3
    },
    {
      "source": 1692,
      "target": 1692,
      "value": 2
    }
  ]
}